read data from Indeed
…
related background:

major <- tibble(major_name = c("Computer Science", "Statistics", "Mathematics", "Quantitative", 
                               "Biology", "Economics", "Data Science", "Chemical Engineering", "Biostatistics"))
                
datascience %>% 
  filter(str_detect(description, "[Mm]athematics") == TRUE)

## # A tibble: 1,184 x 5
##    position             company    description           reviews location 
##    <chr>                <chr>      <chr>                   <int> <chr>    
##  1 An Ostentatiously-E The Hexag "Job Description\n\n      NA Atlanta,
##  2 Senior Associate -  KPMG       "Known for being a g    4494 Atlanta,
##  3 Senior Associate, D KPMG       "Innovate. Collabora    4494 Atlanta,
##  4 Data Scientist       Relus Clo "DATA SCIENTIST\n\nS      NA Atlanta,
##  5 Data Scientist       Inspire B "This position is cr      NA Atlanta,
##  6 Data Scientist       Norfolk S "Join a growing Data     722 Atlanta,
##  7 Data Scientist - CO Capgemini  "Overview:\nConsulta    5720 Atlanta,
##  8 Senior Data Scienti Catalina  "Sr. Data Scientist\      78 Atlanta,
##  9 Data Scientist       SalesLoft  "We are looking for        7 Atlanta,
## 10 Data Scientist       McKesson   "RelayHealth Pharmac    3558 Atlanta,
## # ... with 1,174 more rows

datascience %>% 
  filter(str_detect(description, "[Cc]omputer [Ss]cience") == TRUE)

## # A tibble: 2,403 x 5
##    position             company   description            reviews location 
##    <chr>                <chr>     <chr>                    <int> <chr>    
##  1 An Ostentatiously-E The Hexa "Job Description\n\n\      NA Atlanta,
##  2 Data Scientist       Xpert St "Growing company loca      NA Atlanta,
##  3 Assistant Professor Emory Un "DESCRIPTION\nThe Emo     550 Atlanta,
##  4 Manager of Data Eng McKinsey "Qualifications\nBach     385 Atlanta,
##  5 Senior Associate -  KPMG      "Known for being a gr    4494 Atlanta,
##  6 Senior Associate, D KPMG      "Innovate. Collaborat    4494 Atlanta,
##  7 Data Scientist       Cotiviti  "Cotiviti is looking      104 Atlanta,
##  8 Senior Mobile Devel Perficie "Overview\n\n\n\nAt P      44 Atlanta,
##  9 Data Scientist       Relus Cl "DATA SCIENTIST\n\nSU      NA Atlanta,
## 10 Data Scientist       Inspire  "This position is cri      NA Atlanta,
## # ... with 2,393 more rows

datascience %>% 
  filter(str_detect(description, "[Dd]ata [Ss]cience") == TRUE)

## # A tibble: 1,575 x 5
##    position            company     description           reviews location 
##    <chr>               <chr>       <chr>                   <int> <chr>    
##  1 Data Scientist      Xpert Staf "Growing company loc      NA Atlanta,
##  2 Assistant Professo Emory Univ "DESCRIPTION\nThe Em     550 Atlanta,
##  3 Senior Associate,  KPMG        "Innovate. Collabora    4494 Atlanta,
##  4 Business Intellige Newell Bra "Data Science Analys     912 Atlanta,
##  5 Data Scientist      Cotiviti    "Cotiviti is looking     104 Atlanta,
##  6 Data Scientist      Norfolk So "Join a growing Data     722 Atlanta,
##  7 DATA SCIENTIST - S The Home D "POSITION PURPOSE:\n   38844 Atlanta,
##  8 Data Scientist - I Georgia Te "Full-time, permanen     496 Atlanta,
##  9 Data Scientist, On The Home D "Position Purpose:\n   38844 Atlanta,
## 10 Data Scientist - C Capgemini   "Overview:\nConsulta    5720 Atlanta,
## # ... with 1,565 more rows
…
position word frequency

inspection_words_position = 
  datascience %>% 
  unnest_tokens(word, position)

inspection_words

## # A tibble: 2,250,900 x 6
##    position             company reviews location          index word       
##    <chr>                <chr>     <int> <chr>             <int> <chr>      
##  1 Development Director ALS TDI      NA Atlanta, GA 30301     1 development
##  2 Development Director ALS TDI      NA Atlanta, GA 30301     1 director   
##  3 Development Director ALS TDI      NA Atlanta, GA 30301     1 als        
##  4 Development Director ALS TDI      NA Atlanta, GA 30301     1 therapy    
##  5 Development Director ALS TDI      NA Atlanta, GA 30301     1 development
##  6 Development Director ALS TDI      NA Atlanta, GA 30301     1 institute  
##  7 Development Director ALS TDI      NA Atlanta, GA 30301     1 development
##  8 Development Director ALS TDI      NA Atlanta, GA 30301     1 directors  
##  9 Development Director ALS TDI      NA Atlanta, GA 30301     1 reporting  
## 10 Development Director ALS TDI      NA Atlanta, GA 30301     1 directly   
## # ... with 2,250,890 more rows
…
